name: Notes
description: |-

  API для управления заметками
  Все ответы возвращаются в формате JSON.
endpoints:
  -
    custom: []
    httpMethods:
      - GET
    uri: api/notes
    metadata:
      custom: []
      groupName: Notes
      groupDescription: |-

        API для управления заметками
        Все ответы возвращаются в формате JSON.
      subgroup: ''
      subgroupDescription: ''
      title: 'Получить список заметок (пагинация)'
      description: ''
      authenticated: false
      deprecated: false
    headers:
      Content-Type: application/json
      Accept: application/json
    urlParameters: []
    cleanUrlParameters: []
    queryParameters:
      page:
        custom: []
        name: page
        description: 'Номер страницы.'
        required: false
        example: 1
        type: integer
        enumValues: []
        exampleWasSpecified: true
        nullable: false
        deprecated: false
      per_page:
        custom: []
        name: per_page
        description: 'Количество на странице (1-50).'
        required: false
        example: '10'
        type: string
        enumValues: []
        exampleWasSpecified: true
        nullable: false
        deprecated: false
    cleanQueryParameters:
      page: 1
      per_page: '10'
    bodyParameters: []
    cleanBodyParameters: []
    fileParameters: []
    responses:
      -
        custom: []
        status: 200
        content: '{"data":[{"id":1,"title":"...","content":"...","created_at":"...","updated_at":"..."}],"links":{"first":"...","last":"...","prev":null,"next":"..."},"meta":{"current_page":1,"last_page":5,"per_page":10,"total":42}}'
        headers: []
        description: Успех
    responseFields: []
    auth: []
    controller: null
    method: null
    route: null
  -
    custom: []
    httpMethods:
      - POST
    uri: api/notes
    metadata:
      custom: []
      groupName: Notes
      groupDescription: |-

        API для управления заметками
        Все ответы возвращаются в формате JSON.
      subgroup: ''
      subgroupDescription: ''
      title: 'Создать заметку.'
      description: ''
      authenticated: false
      deprecated: false
    headers:
      Content-Type: application/json
      Accept: application/json
    urlParameters: []
    cleanUrlParameters: []
    queryParameters: []
    cleanQueryParameters: []
    bodyParameters:
      title:
        custom: []
        name: title
        description: Заголовок.
        required: true
        example: '"My note"'
        type: string
        enumValues: []
        exampleWasSpecified: true
        nullable: false
        deprecated: false
      content:
        custom: []
        name: content
        description: Текст.
        required: false
        example: '"Hello"'
        type: string
        enumValues: []
        exampleWasSpecified: true
        nullable: true
        deprecated: false
    cleanBodyParameters:
      title: '"My note"'
      content: '"Hello"'
    fileParameters: []
    responses:
      -
        custom: []
        status: 201
        content: '{"data":{"id":1,"title":"My note","content":"Hello","created_at":"...","updated_at":"..."}}'
        headers: []
        description: Создано
      -
        custom: []
        status: 422
        content: '{"message":"The title field is required.","errors":{"title":["The title field is required."]}}'
        headers: []
        description: 'Ошибка валидации'
    responseFields: []
    auth: []
    controller: null
    method: null
    route: null
  -
    custom: []
    httpMethods:
      - GET
    uri: 'api/notes/{id}'
    metadata:
      custom: []
      groupName: Notes
      groupDescription: |-

        API для управления заметками
        Все ответы возвращаются в формате JSON.
      subgroup: ''
      subgroupDescription: ''
      title: 'Получить одну заметку.'
      description: ''
      authenticated: false
      deprecated: false
    headers:
      Content-Type: application/json
      Accept: application/json
    urlParameters:
      id:
        custom: []
        name: id
        description: 'The ID of the note.'
        required: true
        example: 31
        type: integer
        enumValues: []
        exampleWasSpecified: false
        nullable: false
        deprecated: false
      note:
        custom: []
        name: note
        description: 'ID заметки.'
        required: true
        example: 1
        type: integer
        enumValues: []
        exampleWasSpecified: true
        nullable: false
        deprecated: false
    cleanUrlParameters:
      id: 31
      note: 1
    queryParameters: []
    cleanQueryParameters: []
    bodyParameters: []
    cleanBodyParameters: []
    fileParameters: []
    responses:
      -
        custom: []
        status: 200
        content: '{"data":{"id":31,"title":"\u0422\u0430\u0439\u0442","content":"\u0432\u0430\u0432\u0430","created_at":"2026-02-01T11:22:35.000000Z","updated_at":"2026-02-01T11:22:35.000000Z"}}'
        headers:
          cache-control: 'no-cache, private'
          content-type: application/json
          access-control-allow-origin: '*'
        description: null
      -
        custom: []
        status: 404
        content: '{"message":"No query results for model [App\\\\Models\\\\Note] 999"}'
        headers: []
        description: 'Не найдено'
    responseFields: []
    auth: []
    controller: null
    method: null
    route: null
  -
    custom: []
    httpMethods:
      - PUT
      - PATCH
    uri: 'api/notes/{id}'
    metadata:
      custom: []
      groupName: Notes
      groupDescription: |-

        API для управления заметками
        Все ответы возвращаются в формате JSON.
      subgroup: ''
      subgroupDescription: ''
      title: 'Создать заметку.'
      description: ''
      authenticated: false
      deprecated: false
    headers:
      Content-Type: application/json
      Accept: application/json
    urlParameters:
      id:
        custom: []
        name: id
        description: 'The ID of the note.'
        required: true
        example: 31
        type: integer
        enumValues: []
        exampleWasSpecified: false
        nullable: false
        deprecated: false
    cleanUrlParameters:
      id: 31
    queryParameters: []
    cleanQueryParameters: []
    bodyParameters:
      title:
        custom: []
        name: title
        description: Заголовок.
        required: true
        example: '"My note"'
        type: string
        enumValues: []
        exampleWasSpecified: true
        nullable: false
        deprecated: false
      content:
        custom: []
        name: content
        description: Текст.
        required: false
        example: '"Hello"'
        type: string
        enumValues: []
        exampleWasSpecified: true
        nullable: true
        deprecated: false
    cleanBodyParameters:
      title: '"My note"'
      content: '"Hello"'
    fileParameters: []
    responses:
      -
        custom: []
        status: 200
        content: '{"data":{"id":1,"title":"My note","content":"Hello","created_at":"...","updated_at":"..."}}'
        headers: []
        description: Обновлено
      -
        custom: []
        status: 422
        content: '{"message":"The title field is required.","errors":{"title":["The title field is required."]}}'
        headers: []
        description: 'Ошибка валидации'
    responseFields: []
    auth: []
    controller: null
    method: null
    route: null
  -
    custom: []
    httpMethods:
      - DELETE
    uri: 'api/notes/{id}'
    metadata:
      custom: []
      groupName: Notes
      groupDescription: |-

        API для управления заметками
        Все ответы возвращаются в формате JSON.
      subgroup: ''
      subgroupDescription: ''
      title: 'Удалить заметку.'
      description: ''
      authenticated: false
      deprecated: false
    headers:
      Content-Type: application/json
      Accept: application/json
    urlParameters:
      id:
        custom: []
        name: id
        description: 'The ID of the note.'
        required: true
        example: 31
        type: integer
        enumValues: []
        exampleWasSpecified: false
        nullable: false
        deprecated: false
      note:
        custom: []
        name: note
        description: 'ID заметки.'
        required: true
        example: 1
        type: integer
        enumValues: []
        exampleWasSpecified: true
        nullable: false
        deprecated: false
    cleanUrlParameters:
      id: 31
      note: 1
    queryParameters: []
    cleanQueryParameters: []
    bodyParameters: []
    cleanBodyParameters: []
    fileParameters: []
    responses:
      -
        custom: []
        status: 204
        content: '{}'
        headers: []
        description: ''
    responseFields: []
    auth: []
    controller: null
    method: null
    route: null
